Get the Clinical Breast Examination Target Population — get_breast_cbe_target_population • cancerscreening
…
    Examples

# Get the country projection of women to perform CBE for the year 2024
target_population <- get_breast_cbe_target_population(2024)
target_population
#> # A tibble: 1 × 1
#>     target
#>      <dbl>
#> 1 1545577.

# Get the projection for CBE for 2022 by county
target_population <- get_breast_cbe_target_population(2022, level = 'county')
target_population
#> # A tibble: 47 × 2
#>    county          target
#>    <fct>            <dbl>
#>  1 Baringo          9206.
#>  2 Bomet           13021.
#>  3 Bungoma         24429.
#>  4 Busia           13914.
#>  5 Elgeyo Marakwet  6599.
#>  6 Embu            11919.
#>  7 Garissa          9730.
#>  8 Homa Bay        17383.
#>  9 Isiolo           3476.
#> 10 Kajiado         18656.
#> # ℹ 37 more rows
…
