Getting Started
…
!in
%.~in%
Find objects not matching 1 or more values

Working with metadata filters

Basic usage of the metadata filter

# Retrieve organisation units by county (level 2)
county <- get_organisation_units(level %.eq% '2')
county
#> # A tibble: 47 × 2
#>    name                   id         
#>    <chr>                  <chr>      
#>  1 Baringo County         vvOK1BxTbet
#>  2 Bomet County           HMNARUV2CW4
#>  3 Bungoma County         KGHhQ5GLd4k
#>  4 Busia County           Tvf1zgVZ0K4
#>  5 Elgeyo Marakwet County MqnLxQBigG0
#>  6 Embu County            PFu8alU2KWG
#>  7 Garissa County         uyOrcHZBpW0
#>  8 Homa Bay County        nK0A12Q7MvS
#>  9 Isiolo County          bzOfj0iwfDH
#> 10 Kajiado County         Hsk1YV8kHkT
#> # ℹ 37 more rows
…
data_element_id <- c('cXe64Yk0QMY', 'XEX93uLsAm2')

# Retrieve data elements by ID using operator in
data_elements <- get_data_elements(id %.in% data_element_id)
data_elements
#> # A tibble: 2 × 2
#>   name         id         
#>   <chr>        <chr>      
#> 1 CBE-Abnormal XEX93uLsAm2
#> 2 CBE-Normal   cXe64Yk0QMY

# Retrieve data elements by filtering using dataElementGroups
data_elements <- get_data_elements(dataElementGroups.name %.like% 'moh 705')
data_elements
#> # A tibble: 96 × 2
#>    name                         id         
#>    <chr>                        <chr>      
#>  1 Abortion                     IrWSgk9GsUm
#>  2 All other diseases           KxT47tbKHsd
#>  3 Anaemia cases                kkUHOwGMawD
#>  4 Arthritis, Joint pains etc.  waNhWrS3HL6
#>  5 Asthma                       L82lvvxVaqt
#>  6 Autism                       L529r3Wvtcf
#>  7 Bilharzia  (Schistosomiasis) ojFSHMwbkHK
#>  8 Brucellosis                  nb9cfWgxYFc
#>  9 Burns                        dkEYL9Sous9
#> 10 Cardiovascular conditions    sZETzNe1To8
#> # ℹ 86 more rows
…
