Get started with cancerscreening • cancerscreening
…
If these function do not meet your criteria you can make your target
population using the get_filtered_population().

# Get the cervical screening target population for 2022
cervical_target_population <- get_cervical_target_population(2022)
cervical_target_population
#> # A tibble: 1 × 1
#>     target
#>      <dbl>
#> 1 1112735.

# Get the colorectal cancer screening target population for 20223 by county
colorectal_target_population <- get_colorectal_target_population(2023, level = 'county')
colorectal_target_population
#> # A tibble: 47 × 2
#>    county          target
#>    <fct>            <dbl>
#>  1 Baringo          8277.
#>  2 Bomet           10887.
#>  3 Bungoma         21427.
#>  4 Busia           12263.
#>  5 Elgeyo Marakwet  6050.
#>  6 Embu            12288.
#>  7 Garissa          6872.
#>  8 Homa Bay        14163.
#>  9 Isiolo           2848.
#> 10 Kajiado         12606.
#> # ℹ 37 more rows
…
